<svg width="16px" height="16px" viewBox="0 0 16 16" version="1.1" xmlns="http://www.w3.org/2000/svg" xmlns:xlink="http://www.w3.org/1999/xlink">
    <g id="Symbols" stroke="none" stroke-width="1" fill="none" fill-rule="evenodd">
        <g id="btn_main_arrow_s">
            <rect id="Rectangle" x="0" y="0" width="16" height="16"></rect>
            <polyline id="Path-3" stroke="#5A4E33" stroke-width="2" stroke-linecap="round" stroke-linejoin="round" points="6 4 10.1894531 8.18945312 6 12.3789062"></polyline>
        </g>
    </g>
</svg>