<svg width="22px" height="22px" viewBox="0 0 22 22" version="1.1" xmlns="http://www.w3.org/2000/svg" xmlns:xlink="http://www.w3.org/1999/xlink">
    <g id="Symbols" stroke="none" stroke-width="1" fill="none" fill-rule="evenodd">
        <g id="textfield_btn_calendar">
            <polygon id="Path" points="0 0 22 0 22 22 0 22"></polygon>
            <path d="M18.0288742,2.73484848 L17.4166667,2.73484848 L17.4166667,0.916666667 L15.5833333,0.916666667 L15.5833333,2.73484848 L6.41666667,2.73484848 L6.41666667,0.916666667 L4.58333333,0.916666667 L4.58333333,2.73484848 L3.99289018,2.73484848 C2.98455684,2.73484848 2.15955684,3.5530303 2.15955684,4.5530303 L2.15955684,18.7921631 C2.15955684,19.7921631 2.98455684,20.610345 3.99289018,20.610345 L18.0288742,20.610345 C19.0372075,20.610345 19.8622075,19.7921631 19.8622075,18.7921631 L19.8622075,4.5530303 C19.8622075,3.5530303 19.0372075,2.73484848 18.0288742,2.73484848 Z M18.3333333,19.0984848 L3.66666667,19.0984848 L3.66666667,8.81016693 L18.3333333,8.76481965 L18.3333333,19.0984848 Z M18.3333333,7.28030303 L3.66666667,7.28030303 L3.66666667,4.25112324 L18.3333333,4.25112324 L18.3333333,7.28030303 Z" id="Shape" fill="#DED6CC" fill-rule="nonzero"></path>
        </g>
    </g>
</svg>