<svg width="22px" height="22px" viewBox="0 0 22 22" version="1.1" xmlns="http://www.w3.org/2000/svg" xmlns:xlink="http://www.w3.org/1999/xlink">
    <g id="🖥-회원가입" stroke="none" stroke-width="1" fill="none" fill-rule="evenodd">
        <g id="회원가입_1-SNS로그인" transform="translate(-78.000000, -480.000000)">
            <g id="btn_apple" transform="translate(16.000000, 480.000000)">
                <rect id="Rectangle" opacity="0.400000006" x="62" y="0" width="22" height="22"></rect>
                <g id="Group-6" transform="translate(63.999989, 0.000000)" fill="#FFFFFF">
                    <path d="M10.0006852,2.07439707 C11.4538195,0.0101031553 13.4740599,0 13.4740599,0 C13.4740599,0 13.7744891,1.94082396 12.3309464,3.81045592 C10.7895254,5.80680808 9.03745148,5.48013939 9.03745148,5.48013939 C9.03745148,5.48013939 8.70850163,3.91007773 10.0006852,2.07439707" id="Fill-1"></path>
                    <path d="M9.15446908,6.50937818 C9.9008348,6.50937818 11.2859477,5.5 13.0889122,5.5 C16.1924036,5.5 17.4132775,7.67274684 17.4132775,7.67274684 C17.4132775,7.67274684 15.0253933,8.87390829 15.0253933,11.7885574 C15.0253933,15.0765308 18.0000109,16.2096723 18.0000109,16.2096723 C18.0000109,16.2096723 15.9206187,21.9680956 13.1119811,21.9680956 C11.8219367,21.9680956 10.8190928,21.1127436 9.45984173,21.1127436 C8.07472886,21.1127436 6.70013483,22 5.80490947,22 C3.24016373,22 0,16.5376025 0,12.146786 C0,7.82673732 2.74262286,5.56052558 5.31505824,5.56052558 C6.98733528,5.56052558 8.28506928,6.50937818 9.15446908,6.50937818" id="Fill-3"></path>
                </g>
            </g>
        </g>
    </g>
</svg>