
<svg width="20px" height="20px" viewBox="0 0 20 20" version="1.1" xmlns="http://www.w3.org/2000/svg" xmlns:xlink="http://www.w3.org/1999/xlink">
    <g id="Symbols" stroke="none" stroke-width="1" fill="none" fill-rule="evenodd">
        <g id="common_icon_radio_on">
            <rect id="Rectangle" fill="#0A895F" x="0" y="0" width="20" height="20" rx="10"></rect>
            <circle id="Oval" fill="#FFFFFF" cx="10" cy="10" r="3"></circle>
        </g>
    </g>
</svg>