<svg width="40px" height="41px" viewBox="0 0 40 41" version="1.1" xmlns="http://www.w3.org/2000/svg" xmlns:xlink="http://www.w3.org/1999/xlink">
    <g id="Page-2" stroke="none" stroke-width="1" fill="none" fill-rule="evenodd">
        <g id="B/O_LNB-open" transform="translate(-651.000000, -901.000000)">
            <g id="page-navigation" transform="translate(601.000000, 901.000000)">
                <g id="&lt;" transform="translate(50.000000, 0.009592)">
                    <rect id="Rectangle" x="0" y="0" width="40" height="40"></rect>
                    <polyline id="Shape" stroke="#666666" stroke-linecap="round" points="22.8445028 24.800838 17.8445028 19.7971609 22.8399449 14.800838"></polyline>
                </g>
            </g>
        </g>
    </g>
</svg>